Homework 4
…
glass <- read_csv("https://www4.stat.ncsu.edu/online/datasets/glass.data",col_names = c('Id','RI','Na','Mg','Al','Si','K','Ca','Ba','Fe','TypeOfGlass'),show_col_types = FALSE)

glass

# A tibble: 214 × 11
      Id    RI    Na    Mg    Al    Si     K    Ca    Ba    Fe TypeOfGlass
   <dbl> <dbl> <dbl> <dbl> <dbl> <dbl> <dbl> <dbl> <dbl> <dbl>       <dbl>
 1     1  1.52  13.6  4.49  1.1   71.8  0.06  8.75     0  0              1
 2     2  1.52  13.9  3.6   1.36  72.7  0.48  7.83     0  0              1
 3     3  1.52  13.5  3.55  1.54  73.0  0.39  7.78     0  0              1
 4     4  1.52  13.2  3.69  1.29  72.6  0.57  8.22     0  0              1
 5     5  1.52  13.3  3.62  1.24  73.1  0.55  8.07     0  0              1
 6     6  1.52  12.8  3.61  1.62  73.0  0.64  8.07     0  0.26           1
 7     7  1.52  13.3  3.6   1.14  73.1  0.58  8.17     0  0              1
 8     8  1.52  13.2  3.61  1.05  73.2  0.57  8.24     0  0              1
 9     9  1.52  14.0  3.58  1.37  72.1  0.56  8.3      0  0              1
10    10  1.52  13    3.6   1.36  73.0  0.57  8.4      0  0.11           1
# ℹ 204 more rows

Now we’re going to transform the data using the tidyverse and chaining. The transformations are: 1. Overwrite TypeOfGlass variable by mapping integers to string values 2. Filter where Fe (Iron) is less than 0.2 AND Type Of Glass is tableware or headlamps

glass %>%
  mutate(TypeOfGlass = factor(TypeOfGlass, levels = 1:7,labels = c("building_windows_float_processed", "building_windows_non_float_processed", "vehicle_windows_float_processed", "vehicle_windows_non_float_processed","containers","tableware","headlamps"))) %>%
  filter(Fe < 0.2 & TypeOfGlass %in% c('tableware','headlamps'))

# A tibble: 38 × 11
      Id    RI    Na    Mg    Al    Si     K    Ca    Ba    Fe TypeOfGlass
   <dbl> <dbl> <dbl> <dbl> <dbl> <dbl> <dbl> <dbl> <dbl> <dbl> <fct>      
 1   177  1.52  14    2.39  1.56  72.4  0     9.57  0        0 tableware  
 2   178  1.52  13.8  2.41  1.19  72.8  0     9.77  0        0 tableware  
 3   179  1.52  14.5  2.24  1.62  72.4  0     9.26  0        0 tableware  
 4   180  1.52  14.1  2.19  1.66  72.7  0     9.32  0        0 tableware  
 5   181  1.51  14.4  1.74  1.54  74.6  0     7.59  0        0 tableware  
 6   182  1.52  15.0  0.78  1.74  72.5  0     9.95  0        0 tableware  
 7   183  1.52  14.2  0     2.09  72.7  0    10.9   0        0 tableware  
 8   184  1.52  14.6  0     0.56  73.5  0    11.2   0        0 tableware  
 9   185  1.51  17.4  0     0.34  75.4  0     6.65  0        0 tableware  
10   186  1.51  13.7  3.2   1.81  72.8  1.76  5.43  1.19     0 headlamps  
# ℹ 28 more rows

Yeast Data

The Yeast Data is a fixed_width delimited file. Lets read it in and account for widths

yeast <- read_fwf(file="https://www4.stat.ncsu.edu/online/datasets/yeast.data",fwf_widths(c(12,6,6,6,6,6,6,6,6,6),c('SeqName','Mcg','Gvh','Alm','Mit','Erl','Pox','Vac','Nuc','Class')),show_col_types = FALSE)

Now we’re going to transform the data using the tidyverse and chaining. The transformations are: 1. Remove SeqName and Nuc columns 2. Groups by “Class” and then creates new columns representing mean and median of our original numeric variables

yeast %>%
  select(-c('SeqName','Nuc')) %>%
  group_by(Class) %>%
  mutate(across(where(is.numeric),.fns=list(mean=mean,median=median),.names='Class_{.col}_{.fn}'))

# A tibble: 1,484 × 22
# Groups:   Class [10]
     Mcg   Gvh   Alm   Mit   Erl   Pox   Vac Class Class_Mcg_mean
   <dbl> <dbl> <dbl> <dbl> <dbl> <dbl> <dbl> <chr>          <dbl>
 1  0.58  0.61  0.47  0.13   0.5   0    0.48 MIT            0.521
 2  0.43  0.67  0.48  0.27   0.5   0    0.53 MIT            0.521
 3  0.64  0.62  0.49  0.15   0.5   0    0.53 MIT            0.521
 4  0.58  0.44  0.57  0.13   0.5   0    0.54 NUC            0.452
 5  0.42  0.44  0.48  0.54   0.5   0    0.48 MIT            0.521
 6  0.51  0.4   0.56  0.17   0.5   0.5  0.49 CYT            0.481
 7  0.5   0.54  0.48  0.65   0.5   0    0.53 MIT            0.521
 8  0.48  0.45  0.59  0.2    0.5   0    0.58 NUC            0.452
 9  0.55  0.5   0.66  0.36   0.5   0    0.49 MIT            0.521
10  0.4   0.39  0.6   0.15   0.5   0    0.58 CYT            0.481
# ℹ 1,474 more rows
# ℹ 13 more variables: Class_Mcg_median <dbl>, Class_Gvh_mean <dbl>,
#   Class_Gvh_median <dbl>, Class_Alm_mean <dbl>, Class_Alm_median <dbl>,
#   Class_Mit_mean <dbl>, Class_Mit_median <dbl>, Class_Erl_mean <dbl>,
#   Class_Erl_median <dbl>, Class_Pox_mean <dbl>, Class_Pox_median <dbl>,
#   Class_Vac_mean <dbl>, Class_Vac_median <dbl>

Task 3: Reading Excel Data

We will read in the White Wine data form our “files” folder and print out as a tibble

white_wine <- readxl::read_excel(path='files/white-wine.xlsx')
white_wine

# A tibble: 4,898 × 12
   `fixed acidity` `volatile acidity` `citric acid` `residual sugar` chlorides
             <dbl>              <dbl>         <dbl>            <dbl>     <dbl>
 1               7               0.27          0.36             20.7     0.045
 2              63               0.3           0.34              1.6     0.049
 3              81               0.28          0.4               6.9     0.05 
 4              72               0.23          0.32              8.5     0.058
 5              72               0.23          0.32              8.5     0.058
 6              81               0.28          0.4               6.9     0.05 
 7              62               0.32          0.16              7       0.045
 8               7               0.27          0.36             20.7     0.045
 9              63               0.3           0.34              1.6     0.049
10              81               0.22          0.43              1.5     0.044
# ℹ 4,888 more rows
# ℹ 7 more variables: `free sulfur dioxide` <dbl>,
#   `total sulfur dioxide` <dbl>, density <dbl>, pH <dbl>, sulphates <dbl>,
#   alcohol <dbl>, quality <dbl>

We will fetch the variable names from the second sheet of the file. We will then assign those variable names to the first sheet (already read in).

We will print out the Wine tibble again to make sure this worked.

variable_names <- readxl::read_excel(path='files/white-wine.xlsx',sheet=2)

colnames(white_wine) <- pull(variable_names,"Variables")
white_wine

# A tibble: 4,898 × 12
   fixed_acidity volatile_acidity citric_acid residual_sugar chlorides
           <dbl>            <dbl>       <dbl>          <dbl>     <dbl>
 1             7             0.27        0.36           20.7     0.045
 2            63             0.3         0.34            1.6     0.049
 3            81             0.28        0.4             6.9     0.05 
 4            72             0.23        0.32            8.5     0.058
 5            72             0.23        0.32            8.5     0.058
 6            81             0.28        0.4             6.9     0.05 
 7            62             0.32        0.16            7       0.045
 8             7             0.27        0.36           20.7     0.045
 9            63             0.3         0.34            1.6     0.049
10            81             0.22        0.43            1.5     0.044
# ℹ 4,888 more rows
# ℹ 7 more variables: free_sulfur_dioxide <dbl>, total_sulfur_dioxide <dbl>,
#   density <dbl>, pH <dbl>, sulphates <dbl>, alcohol <dbl>, quality <dbl>
…
We will print out the final tibble

red_wine <- readr::read_delim(file='https://www4.stat.ncsu.edu/~online/datasets/red-wine.csv',delim=";",col_types=head(map_chr(white_wine,typeof),-1),show_col_types=FALSE)

Warning: The following named parsers don't match the column names:
fixed_acidity, volatile_acidity, citric_acid, residual_sugar,
free_sulfur_dioxide, total_sulfur_dioxide

colnames(red_wine) <- head(colnames(white_wine),-1)

red_wine$wine_type = "red"

red_wine

# A tibble: 1,599 × 13
   fixed_acidity volatile_acidity citric_acid residual_sugar chlorides
           <dbl>            <dbl>       <dbl>          <dbl>     <dbl>
 1           7.4             0.7         0               1.9     0.076
 2           7.8             0.88        0               2.6     0.098
 3           7.8             0.76        0.04            2.3     0.092
 4          11.2             0.28        0.56            1.9     0.075
 5           7.4             0.7         0               1.9     0.076
 6           7.4             0.66        0               1.8     0.075
 7           7.9             0.6         0.06            1.6     0.069
 8           7.3             0.65        0               1.2     0.065
 9           7.8             0.58        0.02            2       0.073
10           7.5             0.5         0.36            6.1     0.071
# ℹ 1,589 more rows
# ℹ 8 more variables: free_sulfur_dioxide <dbl>, total_sulfur_dioxide <dbl>,
#   density <dbl>, pH <dbl>, sulphates <dbl>, alcohol <dbl>, quality <dbl>,
#   wine_type <chr>

Now to combine (union) or two tibbles into one!

wine <- dplyr::bind_rows(white_wine,red_wine)
wine

# A tibble: 6,497 × 13
   fixed_acidity volatile_acidity citric_acid residual_sugar chlorides
           <dbl>            <dbl>       <dbl>          <dbl>     <dbl>
 1             7             0.27        0.36           20.7     0.045
 2            63             0.3         0.34            1.6     0.049
 3            81             0.28        0.4             6.9     0.05 
 4            72             0.23        0.32            8.5     0.058
 5            72             0.23        0.32            8.5     0.058
 6            81             0.28        0.4             6.9     0.05 
 7            62             0.32        0.16            7       0.045
 8             7             0.27        0.36           20.7     0.045
 9            63             0.3         0.34            1.6     0.049
10            81             0.22        0.43            1.5     0.044
# ℹ 6,487 more rows
# ℹ 8 more variables: free_sulfur_dioxide <dbl>, total_sulfur_dioxide <dbl>,
#   density <dbl>, pH <dbl>, sulphates <dbl>, alcohol <dbl>, quality <dbl>,
#   wine_type <chr>

Now lets apply a chain of functions to the data. The chain includes: 1. Filter the data to only look at high-quality wines (quality > 6.5) and wines that have a reasonable alcohol value (alcohol < 132). 2. Sort the data from highest quality to lowest. 3. Select only the variables that contain acid, the alcohol variable, the type variable, and the quality variable. 4. Add the mean and standard deviation of the alcohol variable to the data set for each setting of the quality variable.

wine %>%
  filter(quality > 6.5 & alcohol < 132) %>%
  arrange(desc(quality)) %>%
  select(contains("acid"),alcohol,quality,wine_type) %>%
  group_by(quality) %>%
  mutate(across(alcohol,.fns=list(mean=mean,sd=sd),.names="quality_level_{.col}_{.fn}"))

# A tibble: 1,206 × 8
# Groups:   quality [3]
   fixed_acidity volatile_acidity citric_acid alcohol quality wine_type
           <dbl>            <dbl>       <dbl>   <dbl>   <dbl> <chr>    
 1            91             0.27        0.45     104       9 white    
 2            66             0.36        0.29     124       9 white    
 3            74             0.24        0.36     125       9 white    
 4            69             0.36        0.34     127       9 white    
 5            71             0.26        0.49     129       9 white    
 6            62             0.66        0.48     128       8 white    
 7            62             0.66        0.48     128       8 white    
 8            68             0.26        0.42     105       8 white    
 9            67             0.23        0.31     107       8 white    
10            67             0.23        0.31     107       8 white    
# ℹ 1,196 more rows
# ℹ 2 more variables: quality_level_alcohol_mean <dbl>,
#   quality_level_alcohol_sd <dbl>
